{
    "user": [
        {
            "nameUser": "Dan"
        },
        {
            "nameUser": "Cong"
        },
        {
            "nameUser": "Hung"
        },
        {
            "nameUser": "Son"
        },
        {
            "nameUser": "Dung"
        },
        {
            "nameUser": "Phat"
        },
        {
            "nameUser": "Manh"
        },
        {
            "nameUser": "Bach"
        },
        {
            "nameUser": "Thang"
        },
        {
            "nameUser": "Hoang Anh"
        },
        {
            "nameUser": "Nhi"
        },
        {
            "nameUser": "Quynh"
        },
        {
            "nameUser": "Vu"
        },
        {
            "nameUser": "Huy"
        },
        {
            "nameUser": "Minh"
        },
        {
            "nameUser": "Toan"
        },
        {
            "nameUser": "Chien"
        },
        {
            "nameUser": "Manh"
        },
        {
            "nameUser": "Van"
        },
        {
            "nameUser": "Cao"
        }
    ]
}