{
    "imageWheelDatas": [
        {
            "nameImage": "profit"
        },
        {
            "nameImage": "lighting"
        },
        {
            "nameImage": "steal"
        },
        {
            "nameImage": "coins"
        },
        {
            "nameImage": "profit"
        },
        {
            "nameImage": "lighting"
        },
        {
            "nameImage": "steal"
        },
        {
            "nameImage": "coins"
        },
        {
            "nameImage": "profit"
        },
        {
            "nameImage": "lighting"
        },
        {
            "nameImage": "steal"
        },
        {
            "nameImage": "coins"
        }
    ],
    "jobWheelDatas": [
        {
            "lowOrHigh": 0,
            "textJob": "Waiter"
        },
        {
            "lowOrHigh": 0,
            "textJob": "Hairdresser"
        },
        {
            "lowOrHigh": 0,
            "textJob": "Painter"
        },
        {
            "lowOrHigh": 0,
            "textJob": "Teacher"
        },
        {
            "lowOrHigh": 0,
            "textJob": "Farmer"
        },
        {
            "lowOrHigh": 0,
            "textJob": "Tailor"
        },
        {
            "lowOrHigh": 0,
            "textJob": "Carpenter"
        },
        {
            "lowOrHigh": 0,
            "textJob": "Builder"
        },
        {
            "lowOrHigh": 0,
            "textJob": " Baker"
        },
        {
            "lowOrHigh": 1,
            "textJob": "Doctor"
        },
        {
            "lowOrHigh": 1,
            "textJob": "Singer"
        },
        {
            "lowOrHigh": 1,
            "textJob": "Nurse"
        },
        {
            "lowOrHigh": 1,
            "textJob": "Dentist"
        },
        {
            "lowOrHigh": 1,
            "textJob": "Businessman"
        },
        {
            "lowOrHigh": 1,
            "textJob": "Actor"
        },
        {
            "lowOrHigh": 1,
            "textJob": "Engineer"
        },
        {
            "lowOrHigh": 1,
            "textJob": "Model"
        },
        {
            "lowOrHigh": 1,
            "textJob": "Chef"
        },
        {
            "lowOrHigh": 1,
            "textJob": "Artist"
        },
        {
            "lowOrHigh": 1,
            "textJob": "Developer"
        }
    ]
}